{
  "version": "1.0",
  "defaultProvider": "cdnjs",
  "libraries": [
    {
      "provider": "cdnjs",
      "library": "font-awesome@5.11.1",
      "destination": "wwwroot/lib/font-awesome/"
    }
  ,
{
  "provider": "cdnjs",
  "library": "font-awesome@5.11.1",
  "destination": "wwwroot/lib/font-awesome/"
}
]
}